<svg width="342" height="393" viewBox="0 0 342 393" fill="none" xmlns="http://www.w3.org/2000/svg">
<path fill-rule="evenodd" clip-rule="evenodd" d="M170.79 0L0 98.25V294.75L170.79 393L341.58 294.75V98.25L170.79 0Z" fill="#221F20"/>
<path fill-rule="evenodd" clip-rule="evenodd" d="M33.0562 277.305L168.953 356.272L304.851 277.305V119.37L168.953 40.4028L33.0562 119.37V277.305Z" fill="#FEFEFE"/>
<path fill-rule="evenodd" clip-rule="evenodd" d="M149.854 249.758L137.219 219.493L127.302 231.467L117.532 222.726L140.892 194.665L161.607 244.432L149.854 249.758ZM87.4146 216.702L74.7799 186.437L64.863 198.411L55.0931 189.596L78.4528 161.609L99.1679 211.376L87.4146 216.702Z" fill="#221F20"/>
</svg>
